<?xml version="1.0" standalone="no"?> <!DOCTYPE svg PUBLIC "-//W3C//DTD SVG 1.0//EN" "http://www.w3.org/TR/2001/REC-SVG-20010904/DTD/svg10.dtd" > <svg xmlns="http://www.w3.org/2000/svg" width="100%" height="100%">
<defs >
<font id="gil" horiz-adv-x="834" ><font-face
    font-family="Gill Sans MT"
    units-per-em="2048"
    panose-1="2 11 5 2 2 1 4 2 2 3"
    ascent="1903"
    descent="-472"
    alphabetic="0" />
<missing-glyph horiz-adv-x="2048" d="M256 0V1536H1792V0H256ZM384 128H1664V1408H384V128Z" />
<glyph unicode=" " glyph-name="space" horiz-adv-x="569" />
<glyph unicode="!" glyph-name="exclam" horiz-adv-x="555" d="M401 104Q401 54 366 19T279 -16Q225 -16 189 18T152 104Q152 158 188 194T276 231Q330 231 365 195T401 104ZM256 436L240 487Q219 547 192 760T164 1122Q164 1415 279 1415Q391 1415 391 1130Q391
893 346 645L319 492L303 434Q294 403 276 403Q265 403 256 436Z" />
<glyph unicode="&quot;" glyph-name="quotedbl" horiz-adv-x="725" d="M254 946H143L94 1227V1466H299V1227L254 946ZM584 946H475L426 1227V1466H631V1227L584 946Z" />
<glyph unicode="#" glyph-name="numbersign" horiz-adv-x="1196" d="M4 871V994H330L416 1397H537L451 994H872L956 1397H1079L993 994H1192V871H969L893 500H1192V377H868L784 -22H662L748 377H324L240 -22H117L201 377H4V500H227L305 871H4ZM848 871H426L348
500H772L848 871Z" />
<glyph unicode="$" glyph-name="dollar" horiz-adv-x="1110" d="M657 1415V1341Q856 1311 963 1221V991Q838 1119 657 1161V756Q839 702 933 599T1028 360Q1028 225 935 119Q889 66 828 33T657 -18V-240H489V-18Q319 -2 104 125V377Q200 290 289 239T489 166V606Q321
664 253 714T145 834T106 977Q106 1118 211 1217T489 1341V1415H657ZM489 809V1161Q408 1150 357 1103T305 991Q305 933 340 895T464 820Q479 814 489 809ZM688 522L657 539V168Q829 208 829 344Q829 403 799 441T688 522Z" />
<glyph unicode="%" glyph-name="percent" horiz-adv-x="1384" d="M1071 1417H1224L305 -16H151L1071 1417ZM1021 608Q1149 608 1241 517T1333 297Q1333 169 1242 80T1021 -10Q891 -10 800 79T708 297Q708 426 800 517T1021 608ZM1019 457Q953 457 907 410T860
297Q860 230 906 183T1019 135Q1087 135 1134 182T1181 297Q1181 364 1134 410T1019 457ZM362 1413Q491 1413 582 1321T673 1100Q673 972 582 880T362 788Q234 788 143 880T51 1100Q51 1229 142 1321T362 1413ZM360 1262Q293 1262 246 1215T198 1100Q198 1034 246
987T360 940Q427 940 474 987T522 1100Q522 1168 475 1215T360 1262Z" />
<glyph unicode="&amp;" glyph-name="ampersand" horiz-adv-x="1280" d="M1014 0L852 190Q831 169 780 129L778 127Q707 68 603 26T406 -16Q261 -16 160 78T59 309Q59 407 108 486T270 647L273 650Q339 699 387 725Q229 894 229 1049Q229 1192 326 1281T578 1370Q730
1370 828 1283T926 1061Q926 878 682 705L668 694L864 469Q950 563 1014 694H1214Q1142 508 987 328L1270 0H1014ZM684 289L729 330L502 592L414 530Q258 425 258 317Q258 258 309 216T432 174Q488 174 558 206T684 289ZM555 829L631 883Q737 958 737 1057Q737
1118 693 1159T580 1200Q514 1200 471 1162T428 1067Q428 1012 462 948T555 829Z" />
<glyph unicode="&apos;" glyph-name="quotesingle" horiz-adv-x="385" d="M248 946H135L90 1221V1466H295V1221L248 946Z" />
<glyph unicode="(" glyph-name="parenleft" horiz-adv-x="662" d="M524 1415H637Q512 1229 456 1097T371 795T342 465Q342 -81 637 -469H524L494 -432Q381 -296 327 -209T218 17Q131 239 131 471Q131 707 218 926T524 1415Z" />
<glyph unicode=")" glyph-name="parenright" horiz-adv-x="662" d="M137 -469H25Q155 -273 210 -137T292 163T319 477Q319 651 288 814T194 1123T25 1415H137L168 1378Q280 1245 334 1158T443 931Q530 709 530 473Q530 247 451 38Q412 -66 353 -169T137 -469Z" />
<glyph unicode="*" glyph-name="asterisk" horiz-adv-x="854" d="M444 1102H449Q470 1102 485 1081L657 1245Q711 1296 752 1296Q779 1296 798 1276T817 1225Q817 1157 739 1137L717 1130L498 1051Q502 1038 502 1026Q502 1014 498 1004L729 917L774 895Q791 885
804 865T817 827Q817 804 798 781T752 758Q702 758 635 825L485 975Q464 954 444 954L485 743Q494 704 494 651Q494 563 426 563Q356 563 356 659Q356 686 362 711L414 954Q395 956 375 975L215 827Q140 760 102 760Q75 760 55 780T35 827Q35 893 158 934L360 1004Q356
1020 356 1028L360 1051L129 1137Q39 1169 39 1223Q39 1252 60 1275T109 1298Q132 1298 174 1266L201 1245L375 1081Q392 1100 414 1102L375 1307L365 1350Q360 1373 360 1395Q360 1487 430 1487Q498 1487 498 1405Q498 1376 485 1311L444 1102Z" />
<glyph unicode="+" glyph-name="plus" horiz-adv-x="1196" d="M513 237V639H114V807H513V1206H683V807H1082V639H683V237H513Z" />
<glyph unicode="," glyph-name="comma" horiz-adv-x="449" d="M100 -242V-205Q145 -162 163 -119T184 0Q78 31 78 131Q78 185 114 224T201 264Q262 264 301 210T340 72Q340 -39 276 -123T100 -242Z" />
<glyph unicode="-" glyph-name="hyphen" horiz-adv-x="662" d="M82 551H580V356H82V551Z" />
<glyph unicode="." glyph-name="period" horiz-adv-x="449" d="M223 223Q274 223 310 188T346 102Q346 52 311 18T223 -16Q172 -16 137 18T102 102Q102 153 137 188T223 223Z" />
<glyph unicode="/" glyph-name="slash" horiz-adv-x="575" d="M5 -18L407 1416H551L150 -18H5Z" />
<glyph unicode="0" glyph-name="zero" horiz-adv-x="1024" d="M520 1415Q712 1415 837 1214T963 702Q963 384 838 185T512 -14Q309 -14 186 181T63 698Q63 1016 190 1215T520 1415ZM522 1225H512Q397 1225 330 1084T262 700Q262 452 328 311T510 170Q626 170 693
311T760 694Q760 937 696 1081T522 1225Z" />
<glyph unicode="1" glyph-name="one" horiz-adv-x="1024" d="M414 1397H614V0H414V1397Z" />
<glyph unicode="2" glyph-name="two" horiz-adv-x="1024" d="M422 193H954V0H70V14L154 113Q351 357 467 527T619 784T655 956Q655 1074 588 1145T410 1217Q326 1217 245 1168T98 1028V1282Q261 1415 434 1415Q617 1415 735 1293T854 983Q854 899 825 804T720
584T465 244L422 193Z" />
<glyph unicode="3" glyph-name="three" horiz-adv-x="1024" d="M369 813H381Q512 813 580 867T649 1024Q649 1117 583 1175T408 1233Q299 1233 166 1165V1356Q288 1417 432 1417Q625 1417 736 1316T848 1040Q848 934 805 862T668 737Q750 705 788 659T847 546T868
406Q868 223 746 104T438 -16Q279 -16 131 61V279Q289 180 438 180Q539 180 600 240T662 399Q662 482 611 544Q581 579 545 595T387 627L369 629V813Z" />
<glyph unicode="4" glyph-name="four" horiz-adv-x="1024" d="M727 1415H809V631H965V461H809V0H614V461H23V547L727 1415ZM614 631V1036L291 631H614Z" />
<glyph unicode="5" glyph-name="five" horiz-adv-x="1024" d="M207 1397H827V1219H389V866Q410 868 432 868Q635 868 766 745T897 430Q897 233 768 110T432 -14Q262 -14 102 68V274Q253 176 397 176Q523 176 608 249T694 430Q694 541 601 615T369 690Q250 690
207 670V1397Z" />
<glyph unicode="6" glyph-name="six" horiz-adv-x="1024" d="M629 1401L649 1415L770 1262Q610 1159 505 1037T342 750Q453 807 563 807Q728 807 841 690T954 403Q954 228 831 106T532 -16Q335 -16 214 122T92 485Q92 653 154 819T334 1131T629 1401ZM299 543Q291
496 291 438Q291 320 359 244T535 168Q631 168 693 233T756 397Q756 498 690 560T514 623Q458 623 413 606T299 543Z" />
<glyph unicode="7" glyph-name="seven" horiz-adv-x="1024" d="M100 1397H1004L371 -16L193 59L705 1206H100V1397Z" />
<glyph unicode="8" glyph-name="eight" horiz-adv-x="1024" d="M98 1022Q98 1186 221 1300T522 1415Q697 1415 817 1302T938 1022Q938 835 764 713Q958 601 958 383Q958 210 832 97T514 -16Q324 -16 195 99T66 385Q66 598 264 713Q175 785 137 856T98 1022ZM739
1016Q739 1107 677 1166T518 1225Q421 1225 359 1167T297 1018Q297 931 362 869T520 807Q611 807 675 868T739 1016ZM756 375V395Q756 491 688 551T510 612Q403 612 336 551T268 393Q268 296 337 235T516 174Q621 174 688 230T756 375Z" />
<glyph unicode="9" glyph-name="nine" horiz-adv-x="1024" d="M383 -16L260 129Q415 227 531 366T686 653Q591 594 463 594Q303 594 189 713T74 999Q74 1173 196 1294T494 1415Q692 1415 818 1272T944 905Q944 651 786 392T383 -16ZM725 852Q737 932 737 956Q737
1077 670 1154T496 1231Q399 1231 336 1166T272 1001Q272 910 341 844T506 778Q618 778 725 852Z" />
<glyph unicode=":" glyph-name="colon" horiz-adv-x="449" d="M215 227Q266 227 302 191T338 104Q338 54 302 19T215 -16Q166 -16 130 19T94 104Q94 155 129 191T215 227ZM231 938Q282 938 318 902T354 815Q354 765 318 730T231 694Q182 694 147 729T111 815Q111
866 146 902T231 938Z" />
<glyph unicode=";" glyph-name="semicolon" horiz-adv-x="469" d="M207 -10L209 0Q102 31 102 131Q102 185 138 224T225 264Q285 264 325 209T365 72Q365 -39 301 -123T125 -242V-205Q168 -164 186 -121T207 -10ZM244 938Q295 938 331 902T367 815Q367 765 331
730T246 694Q195 694 159 729T123 815Q123 866 158 902T244 938Z" />
<glyph unicode="&lt;" glyph-name="less" horiz-adv-x="1196" d="M112 641V809L1083 1219V1040L313 724L1083 405V226L112 641Z" />
<glyph unicode="=" glyph-name="equal" horiz-adv-x="1196" d="M1082 862H114V1030H1082V862ZM1082 417H114V585H1082V417Z" />
<glyph unicode="&gt;" glyph-name="greater" horiz-adv-x="1196" d="M1083 641L112 226V405L881 724L112 1040V1219L1083 809V641Z" />
<glyph unicode="?" glyph-name="question" horiz-adv-x="682" d="M133 1198L264 1417Q426 1411 510 1327T594 1118Q594 1038 562 949T416 686Q285 484 285 399Q285 386 291 358Q223 389 194 432T164 549Q164 619 187 674T301 870Q387 1006 387 1096Q387 1158 349
1194T246 1231Q198 1231 133 1198ZM438 104Q438 53 402 19T313 -16Q263 -16 229 18T195 102Q195 154 230 190T315 227Q367 227 402 192T438 104Z" />
<glyph unicode="@" glyph-name="at" horiz-adv-x="2068" d="M1012 1083Q1204 1083 1313 899L1348 1055H1528L1368 313Q1354 249 1354 229Q1354 201 1374 182T1423 162Q1488 162 1589 245T1749 455T1808 717Q1808 987 1604 1167T1094 1348Q733 1348 497 1104T260
485Q260 121 487 -80T1126 -281Q1368 -281 1548 -199Q1616 -167 1689 -118T1825 18H2005Q1946 -102 1807 -212T1504 -374T1122 -426Q651 -426 381 -188T110 466Q110 753 243 1001T596 1371T1104 1493Q1476 1493 1718 1272T1960 711Q1960 534 1874 368T1647 100T1356
-2Q1255 -2 1213 34T1161 164Q1095 86 1015 43T856 0Q701 0 598 128T494 446Q494 603 568 752T763 992T1012 1083ZM678 430Q678 306 739 226T893 145Q1032 145 1143 300T1255 649Q1255 779 1192 858T1024 938Q889 938 784 783T678 430Z" />
<glyph unicode="A" glyph-name="A" horiz-adv-x="1366" d="M600 1405H741L1366 0H1161L975 414H381L205 0H0L600 1405ZM893 592L668 1098L459 592H893Z" />
<glyph unicode="B" glyph-name="B" horiz-adv-x="1153" d="M627 0H154V1397H520Q693 1397 790 1351T938 1223T989 1034Q989 828 776 739Q929 710 1019 613T1110 381Q1110 274 1055 190T894 53T627 0ZM526 1219H354V799H487Q647 799 714 860T782 1018Q782 1219
526 1219ZM541 621H354V178H551Q715 178 773 203T867 283T903 399Q903 463 866 516T759 595T541 621Z" />
<glyph unicode="C" glyph-name="C" horiz-adv-x="1450" d="M1358 324V104Q1138 -16 850 -16Q616 -16 453 78T195 337T100 694Q100 999 317 1207T854 1415Q1074 1415 1343 1300V1085Q1098 1225 864 1225Q624 1225 466 1074T307 694Q307 464 463 316T862 168Q1116
168 1358 324Z" />
<glyph unicode="D" glyph-name="D" horiz-adv-x="1536" d="M156 2V1397H627Q912 1397 1078 1312T1342 1060T1440 698Q1440 558 1386 430T1232 205Q1130 105 995 54Q916 23 850 13T598 2H156ZM606 1219H356V180H612Q762 180 845 200T983 252T1085 330Q1233 480
1233 709Q1233 934 1081 1076Q1025 1129 953 1163T815 1208T606 1219Z" />
<glyph unicode="E" glyph-name="E" horiz-adv-x="1024" d="M154 1397H946V1219H354V793H926V614H354V180H965V2H154V1397Z" />
<glyph unicode="F" glyph-name="F" horiz-adv-x="961" d="M156 1397H901V1219H356V829H901V651H356V0H156V1397Z" />
<glyph unicode="G" glyph-name="G" horiz-adv-x="1516" d="M909 688H1378V96Q1120 -16 866 -16Q519 -16 312 186T104 686Q104 999 319 1207T858 1415Q976 1415 1082 1390T1350 1296V1092Q1100 1237 854 1237Q625 1237 468 1081T311 698Q311 460 468 309T872 158Q992
158 1159 213L1178 219V510H909V688Z" />
<glyph unicode="H" glyph-name="H" horiz-adv-x="1493" d="M1139 1397H1339V0H1139V608H354V0H154V1397H354V793H1139V1397Z" />
<glyph unicode="I" glyph-name="I" horiz-adv-x="512" d="M156 1397H356V0H156V1397Z" />
<glyph unicode="J" glyph-name="J" horiz-adv-x="512" d="M156 1397H356V18Q356 -175 317 -267T189 -415T-23 -471Q-42 -471 -88 -465L-125 -279H-74Q12 -279 57 -258T129 -184T156 41V1397Z" />
<glyph unicode="K" glyph-name="K" horiz-adv-x="1343" d="M944 1397H1194L588 735L1343 0H1069L356 690V0H156V1397H356V758L944 1397Z" />
<glyph unicode="L" glyph-name="L" horiz-adv-x="1004" d="M154 1397H354V182H983V0H154V1397Z" />
<glyph unicode="M" glyph-name="M" horiz-adv-x="1599" d="M1266 1397H1452V0H1251V1087L821 547H784L350 1087V0H150V1397H338L803 823L1266 1397Z" />
<glyph unicode="N" glyph-name="N" horiz-adv-x="1599" d="M1264 1397H1454V0H1282L348 1075V0H160V1397H322L1264 313V1397Z" />
<glyph unicode="O" glyph-name="O" horiz-adv-x="1686" d="M840 1417Q1164 1417 1379 1212T1595 698Q1595 389 1378 187T829 -16Q513 -16 303 186T92 694Q92 1007 304 1212T840 1417ZM848 1227Q608 1227 454 1077T299 694Q299 468 454 318T842 168Q1076 168 1232
321T1389 702Q1389 924 1233 1075T848 1227Z" />
<glyph unicode="P" glyph-name="P" horiz-adv-x="1044" d="M143 0V1399H586Q786 1399 905 1291T1024 1001Q1024 879 963 785T796 649T492 606H344V0H143ZM551 1221H344V784H563Q685 784 751 841T817 1006Q817 1221 551 1221Z" />
<glyph unicode="Q" glyph-name="Q" horiz-adv-x="1686" d="M1563 -88L1362 -283Q1268 -278 1166 -250T958 -171T676 0Q421 46 256 242T90 694Q90 1007 303 1212T842 1417Q1166 1417 1380 1214T1595 702Q1595 443 1433 247T1014 0L1067 -20Q1314 -115 1423 -115Q1483
-115 1563 -88ZM842 1227Q606 1227 452 1075T298 692Q298 467 453 318T842 168Q1073 168 1231 321T1389 698Q1389 927 1234 1077T842 1227Z" />
<glyph unicode="R" glyph-name="R" horiz-adv-x="1237" d="M160 0V1397H510Q722 1397 846 1292T971 1008Q971 886 910 797T735 664Q802 620 866 544T1046 279Q1119 160 1163 100L1237 0H999L938 92Q935 97 926 109L887 164L825 266L758 375Q696 461 645 512T552
585T412 608H360V0H160ZM420 1227H360V786H436Q588 786 644 812T732 890T764 1010Q764 1076 729 1129T631 1205T420 1227Z" />
<glyph unicode="S" glyph-name="S" horiz-adv-x="938" d="M500 586L348 678Q205 765 145 849T84 1044Q84 1209 198 1312T496 1415Q671 1415 817 1317V1090Q666 1235 492 1235Q394 1235 331 1190T268 1073Q268 1010 314 955T463 840L616 750Q872 598 872 362Q872
194 760 89T467 -16Q260 -16 90 111V365Q252 160 465 160Q559 160 621 212T684 344Q684 472 500 586Z" />
<glyph unicode="T" glyph-name="T" horiz-adv-x="1237" d="M35 1399H1202V1221H715V0H514V1221H35V1399Z" />
<glyph unicode="U" glyph-name="U" horiz-adv-x="1450" d="M1126 1397H1327V604Q1327 443 1304 361T1246 225T1161 127Q995 -16 727 -16Q454 -16 289 126Q239 170 205 224T148 358T125 606V1397H326V604Q326 407 371 330T508 207T725 160Q903 160 1015 253Q1074
303 1100 371T1126 604V1397Z" />
<glyph unicode="V" glyph-name="V" horiz-adv-x="1237" d="M1038 1397H1237L647 -6H602L0 1397H201L621 416L1038 1397Z" />
<glyph unicode="W" glyph-name="W" horiz-adv-x="2134" d="M1933 1397H2132L1567 -6H1524L1067 1130L606 -6H563L0 1397H201L586 434L973 1397H1163L1552 434L1933 1397Z" />
<glyph unicode="X" glyph-name="X" horiz-adv-x="1450" d="M1165 1397H1407L850 723L1446 0H1204L729 578L248 0H4L606 723L47 1397H291L729 864L1165 1397Z" />
<glyph unicode="Y" glyph-name="Y" horiz-adv-x="1237" d="M995 1397H1237L721 739V0H516V739L0 1397H242L616 915L995 1397Z" />
<glyph unicode="Z" glyph-name="Z" horiz-adv-x="1323" d="M82 1399H1286L393 178H1286V0H25L920 1221H82V1399Z" />
<glyph unicode="[" glyph-name="bracketleft" horiz-adv-x="682" d="M176 1397H653V1233H373V-287H653V-451H176V1397Z" />
<glyph unicode="\" glyph-name="backslash" horiz-adv-x="575" d="M426 -18L24 1416H169L570 -18H426Z" />
<glyph unicode="]" glyph-name="bracketright" horiz-adv-x="682" d="M506 -451H31V-287H309V1233H31V1397H506V-451Z" />
<glyph unicode="^" glyph-name="asciicircum" horiz-adv-x="961" d="M479 1194L238 596H53L408 1397H553L907 596H725L479 1194Z" />
<glyph unicode="_" glyph-name="underscore" horiz-adv-x="1130" d="M1161 -406H-29V-274H1161V-406Z" />
<glyph unicode="`" glyph-name="grave" horiz-adv-x="683" d="M327 1419L465 1119H353L123 1419H327Z" />
<glyph unicode="a" glyph-name="a" horiz-adv-x="874" d="M707 553V162Q707 115 739 115Q772 115 842 164V53Q780 13 743 -1T664 -16Q547 -16 526 76Q410 -14 279 -14Q183 -14 119 49T55 209Q55 296 117 364T295 473L528 553V602Q528 768 362 768Q213 768 72 614V813Q178
938 377 938Q526 938 616 860Q646 835 670 794T700 711T707 553ZM528 182V455L406 408Q313 371 275 334T236 240Q236 183 272 147T367 111Q454 111 528 182Z" />
<glyph unicode="b" glyph-name="b" horiz-adv-x="1024" d="M121 1397H303V854Q421 940 555 940Q730 940 841 808T952 469Q952 247 820 116T465 -16Q376 -16 278 3T121 51V1397ZM303 680V182Q396 154 494 154Q615 154 691 240T768 461Q768 598 697 684T510 770Q408
770 303 680Z" />
<glyph unicode="c" glyph-name="c" horiz-adv-x="897" d="M819 215V35Q682 -16 551 -16Q335 -16 207 112T78 455Q78 672 203 805T532 938Q603 938 659 925T799 874V680Q661 768 543 768Q420 768 341 682T262 461Q262 320 347 237T578 154Q683 154 819 215Z" />
<glyph unicode="d" glyph-name="d" horiz-adv-x="1044" d="M743 1397H926V0H537Q333 0 212 129T90 475Q90 678 217 809T543 940Q635 940 743 901V1397ZM743 156V739Q658 782 571 782Q435 782 355 693T274 453Q274 311 344 234Q386 188 433 172T602 156H743Z" />
<glyph unicode="e" glyph-name="e" horiz-adv-x="981" d="M913 444H266Q273 312 354 234T565 156Q745 156 897 268V90Q813 34 731 10T537 -14Q385 -14 291 49T141 218T84 465Q84 675 203 806T512 938Q695 938 804 810T913 467V444ZM270 553H733Q726 662 668 721T512
780Q414 780 352 721T270 553Z" />
<glyph unicode="f" glyph-name="f" horiz-adv-x="512" d="M150 920V975Q150 1197 244 1306T471 1415Q528 1415 606 1397V1219Q562 1235 522 1235Q415 1235 374 1178T332 975V920H496V756H332V0H150V756H18V920H150Z" />
<glyph unicode="g" glyph-name="g" horiz-adv-x="874" d="M82 602Q82 749 189 834T483 920H862V778H676Q730 723 751 678T772 575Q772 503 731 434T626 327T414 268Q311 253 311 197Q311 165 349 145T489 102Q658 65 706 44T794 -16Q860 -82 860 -182Q860 -313
744 -391T432 -469Q235 -469 118 -391T0 -180Q0 7 231 61Q139 120 139 178Q139 222 178 258T285 311Q82 401 82 602ZM424 762Q350 762 298 712T246 592Q246 521 297 475T426 428Q503 428 554 475T606 594Q606 666 554 714T424 762ZM381 -43Q289 -43 231 -82T172
-182Q172 -324 428 -324Q549 -324 615 -289T682 -188Q682 -124 598 -84T381 -43Z" />
<glyph unicode="h" glyph-name="h" horiz-adv-x="1024" d="M125 1397H307V799Q421 938 590 938Q682 938 755 892T863 765T899 524V0H717V569Q717 670 668 731T537 793Q477 793 424 762T307 659V0H125V1397Z" />
<glyph unicode="i" glyph-name="i" horiz-adv-x="449" d="M223 1307Q268 1307 300 1276T332 1200Q332 1156 300 1124T223 1092Q181 1092 149 1124T117 1200Q117 1242 149 1274T223 1307ZM133 920H315V0H133V920Z" />
<glyph unicode="j" glyph-name="j" horiz-adv-x="449" d="M213 1307Q258 1307 290 1276T322 1200Q322 1154 292 1123T215 1092Q172 1092 139 1124T106 1200Q106 1242 138 1274T213 1307ZM127 920H309V-131Q309 -370 125 -469L-10 -336Q53 -314 90 -259T127 -131V920Z" />
<glyph unicode="k" glyph-name="k" horiz-adv-x="981" d="M727 920H944L551 469L1024 0H780L319 469L727 920ZM129 1397H311V0H129V1397Z" />
<glyph unicode="l" glyph-name="l" horiz-adv-x="449" d="M133 1397H315V0H133V1397Z" />
<glyph unicode="m" glyph-name="m" horiz-adv-x="1579" d="M883 668V0H700V512Q700 665 659 725T516 786Q459 786 412 760T303 668V0H121V920H303V799Q442 938 575 938Q750 938 846 772Q992 940 1151 940Q1285 940 1371 842T1458 543V0H1276V545Q1276 660 1229
721T1094 782Q981 782 883 668Z" />
<glyph unicode="n" glyph-name="n" horiz-adv-x="1024" d="M311 920V803Q433 938 588 938Q674 938 748 894T860 772T899 526V0H717V524Q717 665 674 725T530 786Q401 786 311 657V0H125V920H311Z" />
<glyph unicode="o" glyph-name="o" horiz-adv-x="1130" d="M569 922Q779 922 918 787T1057 446Q1057 247 916 116T561 -16Q354 -16 215 117T76 451Q76 653 216 787T569 922ZM559 758Q428 758 344 672T260 453Q260 321 346 238T567 154Q701 154 786 238T872 455Q872
586 783 672T559 758Z" />
<glyph unicode="p" glyph-name="p" horiz-adv-x="1024" d="M117 -469V920H436Q681 920 817 798T954 457Q954 250 826 117T498 -16Q410 -16 303 23V-469H117ZM432 750H303V184Q387 141 479 141Q607 141 688 230T770 459Q770 549 732 618T627 718T432 750Z" />
<glyph unicode="q" glyph-name="q" horiz-adv-x="1024" d="M563 920H907V-469H725V16Q606 -16 524 -16Q328 -16 200 116T72 451Q72 666 205 793T563 920ZM725 174V750H610Q492 750 453 740T384 711T331 665Q256 580 256 455Q256 314 340 225T559 135Q590 135 610
139T698 166L712 170L725 174Z" />
<glyph unicode="r" glyph-name="r" horiz-adv-x="811" d="M324 920V709L334 725Q466 938 598 938Q701 938 813 834L717 674Q622 764 541 764Q453 764 389 680T324 481V0H141V920H324Z" />
<glyph unicode="s" glyph-name="s" horiz-adv-x="788" d="M84 66V262Q161 208 241 175T377 141Q434 141 475 169T516 236Q516 276 490 302T375 379Q199 477 145 546T90 698Q90 804 172 871T385 938Q520 938 662 862V682Q500 780 397 780Q344 780 312 758T279 698Q279
666 308 637T412 567L477 530Q707 400 707 242Q707 129 619 57T391 -16Q309 -16 245 1T84 66Z" />
<glyph unicode="t" glyph-name="t" horiz-adv-x="682" d="M0 774L342 1110V920H633V756H342V305Q342 147 473 147Q571 147 680 213V43Q575 -16 451 -16Q326 -16 243 57Q217 79 200 106T172 178T160 348V756H0V774Z" />
<glyph unicode="u" glyph-name="u" horiz-adv-x="1024" d="M715 0V117Q657 54 583 19T434 -16Q347 -16 274 27T163 145T125 393V920H307V395Q307 250 348 193T494 135Q624 135 715 262V920H897V0H715Z" />
<glyph unicode="v" glyph-name="v" horiz-adv-x="897" d="M692 920H889L483 -16H422L6 920H205L453 354L692 920Z" />
<glyph unicode="w" glyph-name="w" horiz-adv-x="1473" d="M1278 920H1473L1067 -16H1010L737 625L469 -16H410L0 920H195L436 362L670 920H805L1038 362L1278 920Z" />
<glyph unicode="x" glyph-name="x" horiz-adv-x="1024" d="M764 920H997L618 467L1024 0H791L502 330L229 0H0L387 467L0 920H229L502 604L764 920Z" />
<glyph unicode="y" glyph-name="y" horiz-adv-x="897" d="M692 920H897L246 -469H43L356 197L0 920H207L455 401L692 920Z" />
<glyph unicode="z" glyph-name="z" horiz-adv-x="854" d="M43 920H829L342 170H829V0H23L506 750H43V920Z" />
<glyph unicode="{" glyph-name="braceleft" horiz-adv-x="682" d="M57 449V612Q129 612 178 647T245 752T264 999Q266 1211 278 1279T336 1404Q375 1453 428 1472T580 1491H637V1335H604Q499 1335 467 1296T434 1128V981Q434 848 415 764T355 626T223 530Q341
481 387 382T434 78V-66Q434 -194 466 -233T604 -272H637V-428H580Q478 -428 425 -409T333 -339Q290 -282 278 -214T264 61Q263 241 245 310T174 414T57 449Z" />
<glyph unicode="|" glyph-name="bar" horiz-adv-x="532" d="M188 -472V1397H345V-472H188Z" />
<glyph unicode="}" glyph-name="braceright" horiz-adv-x="682" d="M47 1491H102Q203 1491 257 1472T348 1402Q392 1344 404 1276T420 999Q420 823 437 753T503 648T625 612V449Q560 449 507 414T436 308T417 61Q416 -147 404 -215T348 -341Q309 -391 257 -409T102
-428H47V-272H78Q185 -272 217 -233T250 -66V78Q250 282 296 381T459 530Q374 571 334 617T272 750T250 981V1128Q250 1257 217 1296T78 1335H47V1491Z" />
<glyph unicode="~" glyph-name="asciitilde" horiz-adv-x="1194" d="M348 670Q279 670 223 642T86 535V739Q195 860 365 860Q480 860 639 791L719 756Q781 727 852 727Q984 727 1110 862V651Q988 537 834 537Q729 537 588 598L526 625Q422 670 348 670Z" />
<hkern g1="space" g2="A" k="205" />
<hkern g1="space" g2="T" k="256" />
<hkern g1="space" g2="V" k="307" />
<hkern g1="space" g2="W" k="256" />
<hkern g1="space" g2="Y" k="307" />
<hkern g1="space" g2="quotedblleft" k="205" />
<hkern g1="space" g2="quoteleft" k="205" />
<hkern g1="comma" g2="space" k="205" />
<hkern g1="comma" g2="quotedblright" k="205" />
<hkern g1="comma" g2="quoteright" k="205" />
<hkern g1="period" g2="space" k="205" />
<hkern g1="period" g2="quotedblright" k="205" />
<hkern g1="period" g2="quoteright" k="205" />
<hkern g1="colon" g2="space" k="205" />
<hkern g1="semicolon" g2="space" k="205" />
<hkern g1="A" g2="C" k="82" />
<hkern g1="A" g2="G" k="82" />
<hkern g1="A" g2="O" k="82" />
<hkern g1="A" g2="Q" k="82" />
<hkern g1="A" g2="T" k="205" />
<hkern g1="A" g2="U" k="41" />
<hkern g1="A" g2="V" k="164" />
<hkern g1="A" g2="W" k="164" />
<hkern g1="A" g2="Y" k="225" />
<hkern g1="A" g2="v" k="51" />
<hkern g1="A" g2="w" k="51" />
<hkern g1="A" g2="y" k="51" />
<hkern g1="B" g2="A" k="-41" />
<hkern g1="C" g2="comma" k="-51" />
<hkern g1="C" g2="period" k="-51" />
<hkern g1="C" g2="A" k="-51" />
<hkern g1="D" g2="comma" k="154" />
<hkern g1="D" g2="period" k="154" />
<hkern g1="D" g2="A" k="113" />
<hkern g1="D" g2="V" k="102" />
<hkern g1="D" g2="W" k="102" />
<hkern g1="D" g2="Y" k="205" />
<hkern g1="F" g2="comma" k="287" />
<hkern g1="F" g2="period" k="287" />
<hkern g1="F" g2="A" k="102" />
<hkern g1="F" g2="e" k="31" />
<hkern g1="F" g2="o" k="31" />
<hkern g1="J" g2="e" k="41" />
<hkern g1="J" g2="o" k="41" />
<hkern g1="J" g2="u" k="41" />
<hkern g1="K" g2="O" k="246" />
<hkern g1="K" g2="e" k="123" />
<hkern g1="K" g2="o" k="123" />
<hkern g1="K" g2="u" k="102" />
<hkern g1="K" g2="y" k="154" />
<hkern g1="L" g2="T" k="205" />
<hkern g1="L" g2="V" k="205" />
<hkern g1="L" g2="W" k="205" />
<hkern g1="L" g2="Y" k="225" />
<hkern g1="L" g2="y" k="61" />
<hkern g1="L" g2="quotedblright" k="164" />
<hkern g1="L" g2="quoteright" k="164" />
<hkern g1="O" g2="comma" k="123" />
<hkern g1="O" g2="period" k="123" />
<hkern g1="O" g2="A" k="82" />
<hkern g1="O" g2="T" k="133" />
<hkern g1="O" g2="V" k="82" />
<hkern g1="O" g2="W" k="82" />
<hkern g1="O" g2="X" k="164" />
<hkern g1="O" g2="Y" k="164" />
<hkern g1="P" g2="comma" k="307" />
<hkern g1="P" g2="period" k="307" />
<hkern g1="P" g2="A" k="164" />
<hkern g1="P" g2="e" k="51" />
<hkern g1="P" g2="o" k="51" />
<hkern g1="R" g2="O" k="123" />
<hkern g1="R" g2="T" k="184" />
<hkern g1="R" g2="U" k="61" />
<hkern g1="R" g2="V" k="164" />
<hkern g1="R" g2="W" k="154" />
<hkern g1="R" g2="Y" k="205" />
<hkern g1="T" g2="comma" k="256" />
<hkern g1="T" g2="hyphen" k="348" />
<hkern g1="T" g2="period" k="256" />
<hkern g1="T" g2="colon" k="61" />
<hkern g1="T" g2="semicolon" k="61" />
<hkern g1="T" g2="A" k="205" />
<hkern g1="T" g2="O" k="133" />
<hkern g1="T" g2="a" k="256" />
<hkern g1="T" g2="e" k="307" />
<hkern g1="T" g2="o" k="307" />
<hkern g1="T" g2="r" k="256" />
<hkern g1="T" g2="u" k="287" />
<hkern g1="T" g2="w" k="307" />
<hkern g1="T" g2="y" k="256" />
<hkern g1="U" g2="comma" k="51" />
<hkern g1="U" g2="period" k="51" />
<hkern g1="U" g2="A" k="51" />
<hkern g1="V" g2="comma" k="266" />
<hkern g1="V" g2="hyphen" k="205" />
<hkern g1="V" g2="period" k="266" />
<hkern g1="V" g2="A" k="164" />
<hkern g1="V" g2="G" k="82" />
<hkern g1="V" g2="O" k="82" />
<hkern g1="V" g2="a" k="123" />
<hkern g1="V" g2="e" k="205" />
<hkern g1="V" g2="o" k="205" />
<hkern g1="V" g2="u" k="154" />
<hkern g1="W" g2="comma" k="266" />
<hkern g1="W" g2="hyphen" k="205" />
<hkern g1="W" g2="period" k="266" />
<hkern g1="W" g2="A" k="164" />
<hkern g1="W" g2="O" k="82" />
<hkern g1="W" g2="a" k="123" />
<hkern g1="W" g2="e" k="184" />
<hkern g1="W" g2="o" k="184" />
<hkern g1="W" g2="u" k="154" />
<hkern g1="W" g2="y" k="61" />
<hkern g1="Y" g2="comma" k="266" />
<hkern g1="Y" g2="hyphen" k="307" />
<hkern g1="Y" g2="period" k="266" />
<hkern g1="Y" g2="colon" k="61" />
<hkern g1="Y" g2="semicolon" k="61" />
<hkern g1="Y" g2="A" k="225" />
<hkern g1="Y" g2="O" k="164" />
<hkern g1="Y" g2="S" k="41" />
<hkern g1="Y" g2="a" k="246" />
<hkern g1="Y" g2="e" k="266" />
<hkern g1="Y" g2="o" k="287" />
<hkern g1="Y" g2="u" k="246" />
<hkern g1="a" g2="p" k="20" />
<hkern g1="a" g2="v" k="72" />
<hkern g1="a" g2="w" k="72" />
<hkern g1="a" g2="y" k="82" />
<hkern g1="b" g2="comma" k="20" />
<hkern g1="b" g2="period" k="20" />
<hkern g1="b" g2="y" k="20" />
<hkern g1="c" g2="comma" k="-41" />
<hkern g1="c" g2="period" k="-41" />
<hkern g1="d" g2="d" k="20" />
<hkern g1="e" g2="comma" k="-41" />
<hkern g1="e" g2="period" k="-41" />
<hkern g1="e" g2="v" k="31" />
<hkern g1="e" g2="w" k="31" />
<hkern g1="e" g2="y" k="31" />
<hkern g1="f" g2="e" k="20" />
<hkern g1="f" g2="o" k="20" />
<hkern g1="f" g2="quotedblright" k="-164" />
<hkern g1="f" g2="quoteright" k="-164" />
<hkern g1="f" g2="dotlessi" k="20" />
<hkern g1="g" g2="o" k="20" />
<hkern g1="g" g2="y" k="-41" />
<hkern g1="h" g2="y" k="72" />
<hkern g1="k" g2="e" k="61" />
<hkern g1="k" g2="o" k="61" />
<hkern g1="l" g2="w" k="20" />
<hkern g1="l" g2="y" k="20" />
<hkern g1="m" g2="u" k="20" />
<hkern g1="m" g2="y" k="72" />
<hkern g1="n" g2="u" k="20" />
<hkern g1="n" g2="v" k="31" />
<hkern g1="n" g2="y" k="41" />
<hkern g1="o" g2="comma" k="61" />
<hkern g1="o" g2="period" k="61" />
<hkern g1="o" g2="v" k="20" />
<hkern g1="o" g2="w" k="20" />
<hkern g1="o" g2="x" k="31" />
<hkern g1="o" g2="y" k="41" />
<hkern g1="p" g2="comma" k="61" />
<hkern g1="p" g2="period" k="61" />
<hkern g1="p" g2="y" k="72" />
<hkern g1="r" g2="comma" k="205" />
<hkern g1="r" g2="hyphen" k="164" />
<hkern g1="r" g2="period" k="205" />
<hkern g1="r" g2="colon" k="-82" />
<hkern g1="r" g2="semicolon" k="-82" />
<hkern g1="r" g2="c" k="51" />
<hkern g1="r" g2="d" k="31" />
<hkern g1="r" g2="e" k="41" />
<hkern g1="r" g2="o" k="51" />
<hkern g1="r" g2="q" k="51" />
<hkern g1="r" g2="r" k="20" />
<hkern g1="r" g2="t" k="-41" />
<hkern g1="r" g2="v" k="-61" />
<hkern g1="r" g2="y" k="-61" />
<hkern g1="s" g2="w" k="20" />
<hkern g1="v" g2="comma" k="123" />
<hkern g1="v" g2="period" k="123" />
<hkern g1="v" g2="e" k="41" />
<hkern g1="v" g2="o" k="41" />
<hkern g1="w" g2="comma" k="123" />
<hkern g1="w" g2="period" k="123" />
<hkern g1="w" g2="e" k="41" />
<hkern g1="w" g2="o" k="41" />
<hkern g1="x" g2="e" k="61" />
<hkern g1="y" g2="comma" k="164" />
<hkern g1="y" g2="period" k="164" />
<hkern g1="y" g2="e" k="41" />
<hkern g1="y" g2="o" k="41" />
<hkern g1="quotedblleft" g2="quoteleft" k="-123" />
<hkern g1="quoteright" g2="d" k="164" />
<hkern g1="quoteright" g2="r" k="164" />
<hkern g1="quoteright" g2="s" k="164" />
<hkern g1="quoteright" g2="t" k="82" />
<hkern g1="quoteright" g2="v" k="51" />
<hkern g1="quoteright" g2="quotedblright" k="-123" />
</font>
</defs>
</svg>
